{
    "antifeatures": {
        "Ads": "이 앱에는 광고를 포함합니다",
        "DisabledAlgorithm": "이 앱은 약한 보안 서명이 있습니다",
        "KnownVuln": "이 앱은 알려진 보안 취약점을 포함합니다",
        "NoSourceSince": "소스 코드는 더 이상 사용 가능하지 않으며, 업데이트 가능성은 없습니다.",
        "NonFreeAdd": "이 앱은 자유롭지 않은 부가 기능을 권장하고 있습니다",
        "NonFreeAssets": "이 앱은 자유롭지 않은 자산을 포함합니다",
        "NonFreeDep": "이 앱은 다른 자유롭지 않은 앱에 의존합니다",
        "NonFreeNet": "이 앱은 자유롭지 않은 네트워크 서비스를 권장하고 있습니다",
        "Tracking": "이 앱은 당신의 활동을 추적하여 보고합니다",
        "UpstreamNonFree": "업스트림 소스 코드가 완전히 자유롭지 않습니다"
    },
    "index": {
        "download_fdroid": "F-Droid 다운로드",
        "gpg_signature": "PGP 서명",
        "introduction": "F-Droid는 Android 플랫폼을 위한 설치 가능한 FOSS (자유-오픈 소스 소프트웨어) 애플리케이션의 카탈로그입니다. 클라이언트는 여러분의 기기에서 찾아보고, 설치하고, 업데이트의 추적을 유지하는 것을 쉽게 합니다.",
        "screenshot": "F-Droid Android 앱 스크린샷",
        "title": "F-Droid가 무엇입니까?"
    },
    "navigation": {
        "about": "정보",
        "browse": "찾아보기",
        "contribute": "기여하기",
        "documentation": "설명문서",
        "forum": "포럼",
        "issues": "이슈",
        "news": "뉴스"
    },
    "package": {
        "anti_features": "안티 기능",
        "anti_features_warning": "이 앱은 여러분이 좋아하지 않을 수 있는 기능이 있습니다",
        "author": "저자",
        "build_metadata": "빌드 메타데이터",
        "changelog": "변경내역",
        "donate": "기부",
        "download": "[file_extension] 다운로드",
        "flattr": "Flattr",
        "gpg_signature": "PGP 서명",
        "issue_tracker": "이슈 트래커",
        "liberapay": "Liberapay",
        "license": "라이선스",
        "minimum_android_version": "이 버전은 Android [android_version] 이상이 필요합니다.",
        "new_in_version": "버전 [latest_version]의 새로운 기능",
        "packages": "패키지",
        "permissions": "권한",
        "signed_by_developer": "이것은 원래 개발자에 의해 빌드되고 서명되어 있습니다.",
        "signed_by_fdroid": "이것은 F-Droid에 의해 빌드되고 서명되어 있으며, <a href=\"[source_code_url]\">이 소스 타르볼</a>에 대응되어 보증됩니다.",
        "source_code": "소스 코드",
        "suggest_downloading_via_fdroid": "APK 다운로드는 여러분의 선택을 드리기 위해 아래에 사용 가능하지만, 여러분은 해당 방법으로 설치하는 것은 업데이트 알림을 수신할 수 없고 덜 안전한 방법으로 다운로드한다는 것을 알고 있어야 합니다. 우리는 여러분에게 F-Droid 클라이언트를 설치하고 사용하는 것을 권해드립니다.",
        "technical_info": "기술적인 정보",
        "version_info": "<b>버전 [package_version]</b> ([package_version_code]) - [package_added_date]에 추가됨",
        "website": "웹사이트"
    },
    "permissions": {
        "permdesc_acceptHandovers": "다른 앱에서 수신한 전화를 계속하려면 앱을 허용합니다.",
        "permdesc_accessCoarseLocation": "이 앱은 기지국 및 Wi-Fi 네트워크와 같은 네트워크 소스를 통해 내 위치를 알 수 있습니다. 앱에서 위치 서비스를 사용하려면 휴대전화에서 위치 서비스가 사용 설정되어 있으며 사용 가능해야 합니다.",
        "permdesc_accessDrmCertificates": "애플리케이션이 DRM 인증서를 프로비저닝하고 사용하도록 허용합니다. 일반 앱에서는 필요하지 않습니다.",
        "permdesc_accessFineLocation": "이 앱은 GPS나 기지국 및 Wi-Fi 네트워크와 같은 네트워크 소스를 통해 내 위치를 알 수 있습니다. 앱에서 위치 서비스를 사용하려면 휴대전화에서 위치 서비스가 사용 설정되어 있으며 사용 가능해야 합니다. 이로 인해 배터리 사용량이 늘어날 수 있습니다.",
        "permdesc_accessImsCallService": "앱이 IMS 서비스를 사용하여 자동으로 전화를 걸 수 있도록 허용합니다.",
        "permdesc_accessLocationExtraCommands": "앱이 추가 위치 정보 제공 기능의 명령에 접근하도록 허용합니다. 이 경우 앱이 GPS 또는 기타 위치 소스의 작동을 방해할 수 있습니다.",
        "permdesc_accessNetworkConditions": "애플리케이션이 네트워크 상태에 대한 관측 보고를 수신하도록 허용합니다. 일반 앱에는 필요하지 않습니다.",
        "permdesc_accessNetworkState": "앱이 어떤 네트워크가 존재하며 연결되었는지 등의 네트워크 연결에 대한 정보를 볼 수 있도록 허용합니다.",
        "permdesc_accessNotifications": "앱이 다른 앱에서 게시한 알림을 비롯하여 알림을 검색하고 살펴보며 삭제할 수 있도록 허용합니다.",
        "permdesc_accessWifiState": "앱이 Wi-Fi를 사용하도록 설정했는지 여부나 연결된 Wi-Fi 기기의 이름 등의 Wi-Fi 네트워킹에 대한 정보를 볼 수 있도록 허용합니다.",
        "permdesc_accessWimaxState": "앱이 WiMAX를 사용하도록 설정했는지 여부와 연결된 WiMAX 네트워크에 대한 정보를 결정할 수 있도록 허용합니다.",
        "permdesc_access_notification_policy": "앱에서 방해 금지 모드 설정을 읽고 작성하도록 허용합니다.",
        "permdesc_addVoicemail": "앱이 음성사서함에 메시지를 추가할 수 있도록 허용합니다.",
        "permdesc_answerPhoneCalls": "앱에서 수신 전화를 받도록 허용합니다.",
        "permdesc_bindCarrierMessagingService": "보유자가 이동통신사 메시지 서비스의 최상위 인터페이스에 고정할 수 있습니다. 일반 앱에는 필요하지 않습니다.",
        "permdesc_bindCarrierServices": "권한을 가진 애플리케이션에서 이동통신사 서비스를 사용하도록 허용합니다. 일반 앱에는 필요하지 않습니다.",
        "permdesc_bindConditionProviderService": "권한을 가진 프로그램이 조건 제공자 서비스의 최상위 인터페이스를 사용하도록 합니다. 일반 앱에는 필요하지 않습니다.",
        "permdesc_bindDreamService": "권한을 가진 프로그램이 드림 서비스에 대한 최상위 인터페이스를 사용하도록 허용합니다. 일반 앱에는 필요하지 않습니다.",
        "permdesc_bindNotificationListenerService": "권한을 가진 프로그램이 알림 수신기 서비스에 대한 최상위 인터페이스를 사용하도록 허용합니다. 일반 앱에는 필요하지 않습니다.",
        "permdesc_bind_connection_service": "앱에서 전화 서비스와 상호 작용하여 전화를 받거나 걸 수 있습니다.",
        "permdesc_bind_incall_service": "앱에서 사용자가 통화 화면을 보는 시기와 방법을 제어하도록 허용합니다.",
        "permdesc_bluetooth": "앱에서 휴대전화의 블루투스 설정을 확인하고 등록된 디바이스에 연결하며 연결을 수락할 수 있습니다.",
        "permdesc_bluetoothAdmin": "앱이 로컬 블루투스 휴대전화를 설정한 다음 원격 기기를 검색하여 페어링할 수 있도록 허용합니다.",
        "permdesc_bodySensors": "앱이 심박수와 같은 신체 상태를 확인하는 센서의 데이터에 접근하도록 허용합니다.",
        "permdesc_broadcastSticky": "앱이 브로드캐스트가 끝난 후에 남은 브로드캐스트를 보낼 수 있도록 허용합니다. 앱을 지나치게 사용하면 휴대전화에서 메모리를 너무 많이 사용하도록 하여 속도를 저하시키거나 불안정하게 만들 수 있습니다.",
        "permdesc_callPhone": "앱이 사용자의 조작 없이 전화번호로 전화를 걸 수 있도록 허용합니다. 이 경우 예상치 못한 통화 요금이 부과될 수 있습니다. 앱이 비상 전화를 걸도록 하는 권한은 주어지지 않습니다. 악성 앱이 사용자의 확인 없이 전화를 걸어 요금이 부과될 수 있습니다.",
        "permdesc_camera": "이 앱은 언제든지 카메라를 사용하여 사진을 촬영하고 동영상을 녹화할 수 있습니다.",
        "permdesc_changeNetworkState": "앱이 네트워크 연결 상태를 변경할 수 있도록 허용합니다.",
        "permdesc_changeTetherState": "앱이 테더링된 네트워크 연결 상태를 변경할 수 있도록 허용합니다.",
        "permdesc_changeWifiMulticastState": "앱이 사용자의 휴대전화뿐 아니라 멀티캐스트 주소를 사용하여 Wi-Fi 네트워크에서 모든 기기로 전송된 패킷을 받을 수 있도록 허용합니다. 이 경우 비멀티캐스트 모드보다 전력을 더 많이 소비합니다.",
        "permdesc_changeWifiState": "앱이 Wi-Fi 액세스 포인트에 연결하거나 연결을 끊고, Wi-Fi 네트워크의 기기 설정을 변경할 수 있도록 허용합니다.",
        "permdesc_changeWimaxState": "앱이 휴대전화를 WiMAX 네트워크에 연결하거나 연결을 끊을 수 있도록 허용합니다.",
        "permdesc_connection_manager": "앱이 통신 연결을 관리할 수 있게 허용합니다.",
        "permdesc_control_incall_experience": "앱에서 통화 사용자 경험을 제공하도록 허용합니다.",
        "permdesc_createNetworkSockets": "앱이 네트워크 소켓을 만들고 맞춤 네트워크 프로토콜을 사용할 수 있도록 허용합니다. 브라우저 및 기타 앱이 데이터를 인터넷에 전송하는 수단을 제공하므로, 이 권한이 데이터를 인터넷에 전송하는 데 필요하지 않습니다.",
        "permdesc_disableKeyguard": "앱이 키 잠금 및 관련 비밀번호 보안을 사용중지할 수 있도록 허용합니다. 예를 들어, 휴대전화가 수신전화를 받을 때 키 잠금을 사용중지했다가 통화가 끝나면 키 잠금을 다시 사용할 수 있습니다.",
        "permdesc_enableCarMode": "앱이 운전모드를 사용할 수 있도록 허용합니다.",
        "permdesc_expandStatusBar": "앱이 상태 표시줄을 확장하거나 축소할 수 있도록 허용합니다.",
        "permdesc_foregroundService": "앱에서 포그라운드 서비스를 사용하도록 허용합니다.",
        "permdesc_getAccounts": "앱이 휴대전화가 알고 있는 계정 목록을 가져올 수 있도록 허용합니다. 이 경우 설치한 애플리케이션에 의해 만들어진 모든 계정을 포함할 수 있습니다.",
        "permdesc_getPackageSize": "앱이 해당 코드, 데이터 및 캐시 크기를 검색할 수 있도록 허용합니다.",
        "permdesc_getTasks": "앱이 현재 실행 중이거나 최근에 실행된 작업에 대한 정보를 검색할 수 있도록 허용합니다. 이 경우 앱이 기기에서 사용되는 다른 앱에 대한 정보를 검색할 수 있습니다.",
        "permdesc_handoverStatus": "이 애플리케이션이 현재 Android Beam 전송 관련 정보를 수신하도록 허용합니다.",
        "permdesc_install_shortcut": "애플리케이션이 사용자의 작업 없이 홈 화면 바로가기를 추가할 수 있도록 허용합니다.",
        "permdesc_invokeCarrierSetup": "권한을 가진 프로그램이 이동통신사에서 제공한 구성 앱을 호출하도록 합니다. 일반 앱에는 필요하지 않습니다.",
        "permdesc_killBackgroundProcesses": "앱이 다른 앱의 백그라운드 프로세스를 종료할 수 있도록 허용합니다. 이 경우 다른 앱이 실행 중지될 수 있습니다.",
        "permdesc_manageFingerprint": "사용할 지문 템플릿의 추가 및 삭제 메소드를 앱에서 실행하도록 허용합니다.",
        "permdesc_manageNetworkPolicy": "앱이 네트워크 정책을 관리하고 앱별 규칙을 정의할 수 있도록 허용합니다.",
        "permdesc_manageOwnCalls": "통화 환경을 개선하기 위해 앱이 시스템을 통해 통화를 연결하도록 허용합니다.",
        "permdesc_manageProfileAndDeviceOwners": "앱이 프로필 소유자와 기기 소유자를 설정하도록 허용합니다.",
        "permdesc_modifyAudioSettings": "앱이 음량이나 출력을 위해 사용하는 스피커 등 전체 오디오 설정을 변경할 수 있도록 허용합니다.",
        "permdesc_modifyNetworkAccounting": "애플리케이션이 애플리케이션의 네트워크 사용량을 계산하는 방식을 수정할 수 있도록 허용합니다. 일반 애플리케이션에서는 사용하지 않습니다.",
        "permdesc_nfc": "앱이 NFC(근거리 무선 통신) 태그, 카드 및 리더와 통신할 수 있도록 허용합니다.",
        "permdesc_persistentActivity": "앱이 그 일부분을 영구적인 메모리로 만들 수 있도록 허용합니다. 이렇게 하면 다른 앱이 사용할 수 있는 메모리를 제한하여 휴대전화의 속도를 저하시킬 수 있습니다.",
        "permdesc_processOutgoingCalls": "다른 번호로 다시 걸거나 중단시키는 옵션을 사용하여 발신한 번호를 볼 수 있게 허용합니다.",
        "permdesc_readCalendar": "이 앱은 휴대전화에 저장된 모든 캘린더 일정을 읽고 캘린더 데이터를 공유하거나 저장할 수 있습니다.",
        "permdesc_readCallLog": "이 앱은 통화 기록을 읽을 수 있습니다.",
        "permdesc_readCellBroadcasts": "앱이 기기가 수신한 셀 브로드캐스트 메시지를 읽을 수 있도록 합니다. 비상 상황임을 알리기 위해 일부 지역에서 셀 브로드캐스트 경고가 전달됩니다. 비상 셀 브로드캐스트를 수신할 때 악성 앱이 기기의 성능이나 작동을 방해할 수 있습니다.",
        "permdesc_readContacts": "특정인과 전화, 이메일 또는 기타 수단으로 연락한 빈도를 포함하여 사용자 휴대전화에 저장된 연락처에 대한 데이터를 앱이 읽도록 허용합니다. 이 권한을 사용하면 앱이 연락처 데이터를 저장할 수 있으며, 악성 앱이 사용자 모르게 연락처 데이터를 공유할 수도 있습니다.",
        "permdesc_readHistoryBookmarks": "앱이 브라우저가 방문한 모든 URL의 기록과 모든 브라우저 북마크를 읽을 수 있도록 허용합니다. 참고: 이 권한은 타사 브라우저 또는 브라우저 기능을 가진 기타 애플리케이션에 적용되지 않습니다.",
        "permdesc_readInstallSessions": "애플리케이션의 설치 세션 읽기를 허용하면, 활성 패키지 설치에 대한 세부 정보를 볼 수 있습니다.",
        "permdesc_readNetworkUsageHistory": "앱이 특정 네트워크 및 앱에 대한 이전 네트워크 사용량을 읽을 수 있도록 허용합니다.",
        "permdesc_readPhoneNumbers": "앱에서 기기의 전화번호에 액세스하도록 허용합니다.",
        "permdesc_readPhoneState": "앱이 기기의 휴대전화 기능에 접근할 수 있도록 허용합니다. 이 권한을 사용하면 앱이 전화번호 및 기기의 ID, 활성 통화인지 여부, 통화가 연결된 원격 번호 등을 확인할 수 있습니다.",
        "permdesc_readSms": "앱이 휴대전화에 저장된 모든 내용의 SMS 메시지를 읽을 수 있도록 허용합니다.",
        "permdesc_readSyncSettings": "앱이 계정의 동기화 설정을 읽을 수 있도록 허용합니다. 예를 들어, 계정에서 주소록 앱을 동기화할지 여부를 확인할 수 있습니다.",
        "permdesc_readSyncStats": "앱이 동기화된 일정의 기록이나 동기화된 데이터의 양 등을 포함하여 계정의 동기화 통계를 읽을 수 있도록 허용합니다.",
        "permdesc_receiveBootCompleted": "앱이 시스템 부팅이 끝난 후 바로 시작할 수 있도록 허용합니다. 이 경우 휴대전화가 시작하는 데 시간이 오래 걸리고 앱이 항상 실행되어 전체 휴대전화 속도가 느려질 수 있습니다.",
        "permdesc_receiveMms": "앱이 MMS 메시지를 수신하고 처리할 수 있도록 허용합니다. 앱이 사용자에게 표시하지 않고 기기로 전송된 메시지를 확인 또는 삭제할 수도 있습니다.",
        "permdesc_receiveSms": "앱이 SMS 메시지를 수신하고 처리할 수 있도록 허용합니다. 앱이 사용자에게 표시하지 않고 기기로 전송된 메시지를 확인 또는 삭제할 수도 있습니다.",
        "permdesc_receiveWapPush": "앱이 WAP 메시지를 수신하고 처리할 수 있도록 허용합니다. 이는 앱이 사용자에게 표시하지 않고 기기로 전송된 메시지를 모니터링 또는 삭제할 수도 있다는 것을 의미합니다.",
        "permdesc_recordAudio": "이 앱은 언제든지 마이크를 사용하여 오디오를 녹음할 수 있습니다.",
        "permdesc_register_call_provider": "앱이 새 통신 연결을 등록할 수 있게 허용합니다.",
        "permdesc_register_sim_subscription": "앱이 새 통신 SIM 연결을 등록할 수 있게 허용합니다.",
        "permdesc_removeDrmCertificates": "애플리케이션이 DRM 인증서를 삭제하도록 허용합니다. 일반 앱에서는 필요하지 않습니다.",
        "permdesc_reorderTasks": "앱이 사용자의 입력 없이 작업을 포그라운드나 백그라운드로 이동할 수 있도록 허용합니다.",
        "permdesc_requestDeletePackages": "애플리케이션이 패키지 삭제를 요청하도록 허용합니다.",
        "permdesc_requestIgnoreBatteryOptimizations": "앱에서 배터리 최적화를 무시할 수 있는 권한을 요청할 수 있도록 허용합니다.",
        "permdesc_requestInstallPackages": "애플리케이션이 패키지 설치를 요청하도록 허용합니다.",
        "permdesc_route_media_output": "앱이 미디어 출력을 기타 외부 기기에 연결할 수 있도록 허용합니다.",
        "permdesc_runInBackground": "이 앱은 백그라운드에서 실행될 수 있으며 이로 인해 배터리가 더 빨리 소모될 수도 있습니다.",
        "permdesc_sdcardRead": "앱이 SD 카드의 콘텐츠를 읽을 수 있도록 허용합니다.",
        "permdesc_sdcardWrite": "앱이 SD 카드에 쓸 수 있도록 허용합니다.",
        "permdesc_sendSms": "앱이 SMS 메시지를 보낼 수 있도록 허용합니다. 이 경우 예상치 못한 통화 요금이 부과될 수 있습니다. 이 경우 악성 앱이 사용자의 확인 없이 메시지를 전송해 요금이 부과될 수 있습니다.",
        "permdesc_setAlarm": "앱이 설치된 알람 시계 앱에서 알람을 설정할 수 있도록 허용합니다. 일부 알람 시계 앱에는 이 기능이 구현되지 않을 수 있습니다.",
        "permdesc_setInputCalibration": "앱이 터치 스크린의 보정 매개변수를 수정할 수 있도록 허용합니다. 일반 앱에는 필요하지 않습니다.",
        "permdesc_setTimeZone": "앱이 휴대전화의 표준시간대를 변경할 수 있도록 허용합니다.",
        "permdesc_setWallpaper": "앱이 시스템 배경화면을 설정할 수 있도록 허용합니다.",
        "permdesc_setWallpaperHints": "앱이 시스템 배경화면 크기 힌트를 설정할 수 있도록 허용합니다.",
        "permdesc_sim_communication": "앱이 SIM에 명령어를 전송할 수 있도록 허용합니다. 이 기능은 매우 신중히 허용해야 합니다.",
        "permdesc_statusBar": "앱이 상태 표시줄을 사용중지하거나 시스템 아이콘을 추가 및 제거할 수 있도록 허용합니다.",
        "permdesc_statusBarService": "앱이 상태 표시줄이 되도록 허용합니다.",
        "permdesc_subscribedFeedsRead": "앱이 현재 동기화된 피드에 대한 세부정보를 가져올 수 있도록 허용합니다.",
        "permdesc_systemAlertWindow": "이 앱은 다른 앱이나 화면의 다른 부분 위에 표시될 수 있습니다. 이로 인해 일반적인 앱 사용이 방해받을 수 있으며 다른 앱이 표시되는 방식이 변경될 수 있습니다.",
        "permdesc_transmitIr": "앱에서 휴대전화의 적외선 송신기를 사용하도록 허용합니다.",
        "permdesc_uninstall_shortcut": "애플리케이션이 사용자의 작업 없이 홈 화면 바로가기를 삭제할 수 있도록 허용합니다.",
        "permdesc_useBiometric": "앱에서 생체 인식 하드웨어를 인증에 사용하도록 허용합니다.",
        "permdesc_useDataInBackground": "이 앱은 백그라운드에서 데이터를 사용할 수 있으며 이로 인해 데이터 사용량이 증가할 수도 있습니다.",
        "permdesc_useFingerprint": "앱에서 지문 하드웨어를 인증에 사용하도록 허용합니다.",
        "permdesc_use_sip": "앱에서 SIP 통화를 발신 및 수신하도록 허용",
        "permdesc_vibrate": "앱이 진동을 제어할 수 있도록 허용합니다.",
        "permdesc_wakeLock": "앱이 휴대전화의 절전 모드 전환을 막도록 허용합니다.",
        "permdesc_writeCalendar": "앱이 일정을 추가, 삭제, 변경할 수 있도록 허용합니다. 앱이 메시지를 전송하거나 사용자에게 별도 표시 없이 일정을 수정할 수도 있습니다.",
        "permdesc_writeCallLog": "앱에서 수신 및 발신 통화 데이터를 포함하여 휴대전화의 통화 기록을 수정할 수 있도록 허용합니다. 이 경우 악성 앱이 통화 기록을 지우거나 수정할 수 있습니다.",
        "permdesc_writeContacts": "특정인과 전화, 이메일 또는 기타 수단으로 연락한 빈도를 포함하여 사용자 휴대전화에 저장된 연락처에 대한 데이터를 앱이 수정할 수 있도록 허용합니다. 이 권한을 사용하면 앱이 연락처 데이터를 삭제할 수 있습니다.",
        "permdesc_writeGeolocationPermissions": "앱이 브라우저의 위치 정보 권한을 수정할 수 있도록 허용합니다. 이 경우 악성 앱이 이 기능을 이용하여 임의의 웹사이트에 위치 정보를 보낼 수 있습니다.",
        "permdesc_writeHistoryBookmarks": "앱이 휴대전화에 저장된 브라우저 기록 또는 북마크를 수정할 수 있도록 허용합니다. 이 경우 앱이 브라우저 데이터를 삭제 또는 수정할 수 있습니다. 참고: 이 권한은 타사 브라우저 또는 브라우저 기능을 가진 기타 애플리케이션에 적용되지 않습니다.",
        "permdesc_writeSettings": "앱이 시스템의 설정 데이터를 수정할 수 있도록 허용합니다. 이 경우 악성 앱이 시스템 구성을 손상시킬 수 있습니다.",
        "permdesc_writeSyncSettings": "앱이 계정의 동기화 설정을 수정할 수 있도록 허용합니다. 예를 들어, 계정에서 주소록 앱을 동기화할 목적으로 앱이 사용될 수 있습니다.",
        "permgroupdesc_calendar": "캘린더에 액세스",
        "permgroupdesc_calllog": "통화 기록 읽고 쓰기",
        "permgroupdesc_camera": "사진 및 동영상 촬영",
        "permgroupdesc_contacts": "주소록에 액세스",
        "permgroupdesc_location": "이 기기의 위치정보에 액세스",
        "permgroupdesc_microphone": "오디오 녹음",
        "permgroupdesc_phone": "전화 걸기 및 관리",
        "permgroupdesc_sensors": "생체 신호에 관한 센서 데이터에 액세스",
        "permgroupdesc_sms": "SMS 메시지 전송 및 보기",
        "permgroupdesc_storage": "기기 사진, 미디어, 파일 액세스",
        "permgrouplab_calendar": "캘린더",
        "permgrouplab_calllog": "통화 기록",
        "permgrouplab_camera": "카메라",
        "permgrouplab_contacts": "주소록",
        "permgrouplab_location": "위치",
        "permgrouplab_microphone": "마이크",
        "permgrouplab_phone": "전화",
        "permgrouplab_sensors": "인체 감지 센서",
        "permgrouplab_sms": "SMS",
        "permgrouplab_storage": "저장용량",
        "permgrouprequest_calendar": "<b>",
        "permgrouprequest_calllog": "<b>",
        "permgrouprequest_camera": "<b>",
        "permgrouprequest_contacts": "<b>",
        "permgrouprequest_location": "<b>",
        "permgrouprequest_microphone": "<b>",
        "permgrouprequest_phone": "<b>",
        "permgrouprequest_sensors": "<b>",
        "permgrouprequest_sms": "<b>",
        "permgrouprequest_storage": "<b>",
        "permlab_acceptHandover": "다른 앱에서 전화 받기",
        "permlab_accessCoarseLocation": "대략적인 위치(네트워크 기반)에 액세스",
        "permlab_accessDrmCertificates": "DRM 인증서에 접근",
        "permlab_accessFineLocation": "정확한 위치(GPS 및 네트워크 기반)에 액세스",
        "permlab_accessImsCallService": "IMS 통화 서비스에 접근",
        "permlab_accessLocationExtraCommands": "추가 위치 제공업체 명령에 접근",
        "permlab_accessNetworkConditions": "네트워크 상태에 대한 관측 보고 수신",
        "permlab_accessNetworkState": "네트워크 연결 보기",
        "permlab_accessNotifications": "알림 접근",
        "permlab_accessWifiState": "Wi-Fi 연결 보기",
        "permlab_accessWimaxState": "WiMAX 연결 및 연결 해제",
        "permlab_access_notification_policy": "방해 금지 모드에 접근",
        "permlab_addVoicemail": "음성사서함 추가",
        "permlab_answerPhoneCalls": "전화 받기",
        "permlab_bindCarrierMessagingService": "이동통신사 메시지 서비스에 고정",
        "permlab_bindCarrierServices": "이동통신사 서비스 사용",
        "permlab_bindConditionProviderService": "조건 제공자 서비스 사용",
        "permlab_bindDreamService": "드림 서비스에 연결",
        "permlab_bindNotificationListenerService": "알림 수신기 서비스 사용",
        "permlab_bind_connection_service": "전화 서비스와 상호 작용",
        "permlab_bind_incall_service": "통화 화면과 상호작용",
        "permlab_bluetooth": "블루투스 기기와 페어링",
        "permlab_bluetoothAdmin": "블루투스 설정에 접근",
        "permlab_bodySensors": "인체 감지 센서(예: 심박수 모니터)에 액세스",
        "permlab_broadcastSticky": "스티키 브로드캐스트 보내기",
        "permlab_callPhone": "전화번호 자동 연결",
        "permlab_camera": "사진과 동영상 찍기",
        "permlab_changeNetworkState": "네트워크 연결 변경",
        "permlab_changeTetherState": "연결 변경",
        "permlab_changeWifiMulticastState": "Wi-Fi 멀티캐스트 수신 허용",
        "permlab_changeWifiState": "Wi-Fi 연결 및 연결 해제",
        "permlab_changeWimaxState": "WiMAX 상태 변경",
        "permlab_connection_manager": "통신 연결 관리",
        "permlab_control_incall_experience": "통화 사용자 경험 제공",
        "permlab_createNetworkSockets": "완전한 네트워크 접근",
        "permlab_disableKeyguard": "화면 잠금 사용 중지",
        "permlab_enableCarMode": "운전모드 사용",
        "permlab_expandStatusBar": "상태 표시줄 확장/축소",
        "permlab_foregroundService": "포그라운드 서비스 실행",
        "permlab_getAccounts": "기기에서 계정 검색",
        "permlab_getPackageSize": "앱 저장공간 계산",
        "permlab_getTasks": "실행 중인 앱 검색",
        "permlab_handoverStatus": "Android Beam 전송 상태 수신",
        "permlab_install_shortcut": "바로가기 설치",
        "permlab_invokeCarrierSetup": "이동통신사에서 제공한 구성 앱 호출",
        "permlab_killBackgroundProcesses": "다른 앱 종료",
        "permlab_manageFingerprint": "지문 하드웨어 관리",
        "permlab_manageNetworkPolicy": "네트워크 정책 관리",
        "permlab_manageOwnCalls": "시스템을 통해 통화 연결",
        "permlab_manageProfileAndDeviceOwners": "프로필 및 기기 소유자 관리",
        "permlab_modifyAudioSettings": "오디오 설정 변경",
        "permlab_modifyNetworkAccounting": "네트워크 사용량 계산 수정",
        "permlab_nfc": "NFC(Near Field Communication) 제어",
        "permlab_persistentActivity": "앱이 항상 실행되도록 설정",
        "permlab_processOutgoingCalls": "발신전화 경로 전환",
        "permlab_readCalendar": "캘린더 일정 및 세부정보 읽기",
        "permlab_readCallLog": "통화 기록 읽기",
        "permlab_readCellBroadcasts": "셀 브로드캐스트 메시지 읽기",
        "permlab_readContacts": "연락처 읽기",
        "permlab_readHistoryBookmarks": "웹 북마크 및 기록 읽기",
        "permlab_readInstallSessions": "설치 세션 읽기",
        "permlab_readNetworkUsageHistory": "이전 네트워크 사용량 읽기",
        "permlab_readPhoneNumbers": "전화번호 읽기",
        "permlab_readPhoneState": "휴대전화 상태 및 ID 읽기",
        "permlab_readSms": "내 문자 메시지 읽기(SMS 또는 MMS)",
        "permlab_readSyncSettings": "동기화 설정 읽기",
        "permlab_readSyncStats": "동기화 통계 읽기",
        "permlab_receiveBootCompleted": "시작할 때 실행",
        "permlab_receiveMms": "문자 메시지 받기(MMS)",
        "permlab_receiveSms": "문자 메시지 받기(SMS)",
        "permlab_receiveWapPush": "문자 메시지 받기(WAP)",
        "permlab_recordAudio": "오디오 녹음",
        "permlab_register_call_provider": "새로운 통신 연결 등록",
        "permlab_register_sim_subscription": "새로운 통신 SIM 연결 등록",
        "permlab_removeDrmCertificates": "DRM 인증서 삭제",
        "permlab_reorderTasks": "실행 중인 앱 순서 재지정",
        "permlab_requestDeletePackages": "패키지 삭제 요청",
        "permlab_requestIgnoreBatteryOptimizations": "배터리 최적화를 무시하도록 요청",
        "permlab_requestInstallPackages": "패키지 설치 요청",
        "permlab_route_media_output": "미디어 출력 연결",
        "permlab_runInBackground": "백그라운드에서 실행",
        "permlab_sdcardRead": "SD 카드의 콘텐츠 읽기",
        "permlab_sdcardWrite": "SD 카드의 콘텐츠 수정 또는 삭제",
        "permlab_sendSms": "SMS 메시지 전송 및 보기",
        "permlab_setAlarm": "알람 설정",
        "permlab_setInputCalibration": "입력 기기 보정 변경",
        "permlab_setTimeZone": "표준시간대 설정",
        "permlab_setWallpaper": "배경화면 설정",
        "permlab_setWallpaperHints": "배경화면 크기 조정",
        "permlab_sim_communication": "SIM 카드로 명령 전송",
        "permlab_statusBar": "상태 표시줄 사용 중지 또는 수정",
        "permlab_statusBarService": "상태 표시줄에 위치",
        "permlab_subscribedFeedsRead": "가입된 피드 읽기",
        "permlab_systemAlertWindow": "이 앱은 다른 앱 위에 표시될 수 있음",
        "permlab_transmitIr": "적외선 전송",
        "permlab_uninstall_shortcut": "바로가기 제거",
        "permlab_useBiometric": "생체 인식 하드웨어 사용",
        "permlab_useDataInBackground": "백그라운드에서 데이터 사용",
        "permlab_useFingerprint": "지문 하드웨어 사용",
        "permlab_use_sip": "SIP 통화 발신/수신",
        "permlab_vibrate": "진동 제어",
        "permlab_wakeLock": "휴대전화가 절전 모드로 전환되지 않도록 설정",
        "permlab_writeCalendar": "소유자에게 알리지 않고 캘린더 일정을 추가 또는 수정하고 참석자에게 이메일 전송",
        "permlab_writeCallLog": "통화 기록 쓰기",
        "permlab_writeContacts": "연락처 수정",
        "permlab_writeGeolocationPermissions": "브라우저 위치 정보 권한 수정",
        "permlab_writeHistoryBookmarks": "웹 북마크 및 기록 쓰기",
        "permlab_writeSettings": "시스템 설정 수정",
        "permlab_writeSyncSettings": "동기화 사용 및 사용 중지 전환"
    },
    "sidebars": {
        "donate": {
            "bank_transfer_name": "이름",
            "bitcoin_alt": "비트코인을 통해 기부",
            "flattr_alt": "Flattr를 통해 기부",
            "heading": "기부",
            "hellotux": "👕 티셔츠 👕 판매처",
            "hellotux_alt": "HELLOTUX",
            "hellotux_donation": "F-Droid는 셔츠가 팔릴 때마다 3 €를 받을 것입니다.",
            "liberapay_alt": "Liberapay를 통해 기부",
            "litecoin_alt": "라이트코인을 통해 기부",
            "paypal_alt": "PayPal을 통해 기부",
            "powered_by_donations": "F-Droid는 여러분의 기부로 제공됩니다!",
            "via_bank_transfer": "은행 송금"
        },
        "last_updated": {
            "heading": "마지막 업데이트"
        },
        "latest_packages": {
            "heading": "최신 앱"
        },
        "news": {
            "heading": "뉴스"
        },
        "search": {
            "heading": "앱 찾기",
            "noscript": "활성화하려면 JavaScript가 필요합니다",
            "search": "검색"
        }
    }
}
